{
  "dwarf_red"       : [  800,    0,  800 ],
  "orc_red"         : [ 1000,    0,    0 ],
  "grass_green"     : [  600, 1000,  600 ],
  "tree_green"      : [    0, 1000,    0 ],
  "dirt_yellow"     : [ 1000, 1000,    0 ],
  "mountain_yellow" : [  500,  250,    0 ],
  "water_blue"      : [    0,  500, 1000 ],
  "hall_blue"       : [ 1000, 1000, 1000 ]
}
