[ 
  {
    "name" : "dwarf",
    "data" : {
      "width"        : 1,
      "height"       : 1,
      "thirst_rate"  : 100,
      "thirst_max"   : 500,
      "drink_time"   : 50,
      "sleep_rate"   : 1,
      "sleep_max"    : 500,
      "sleep_time"   : 50,
      "basic_health" : 100,
      "dmg_min"      : 15,
      "dmg_max"      : 20,
      "def_min"      : 5,
      "def_max"      : 10,
      "att_interval" : 32000,
      "level_max"    : 10,
      "exp_range"    : [ 100, 200, 300, 400, 500, 600, 700, 800, 900 ],
      "rep_char"     : "D",
      "color"        : "dwarf_red"
    }
  }
]
